EESchema Schematic File Version 2
LIBS:power
LIBS:device
LIBS:switches
LIBS:relays
LIBS:motors
LIBS:transistors
LIBS:conn
LIBS:linear
LIBS:regul
LIBS:74xx
LIBS:cmos4000
LIBS:adc-dac
LIBS:memory
LIBS:xilinx
LIBS:microcontrollers
LIBS:dsp
LIBS:microchip
LIBS:analog_switches
LIBS:motorola
LIBS:texas
LIBS:intel
LIBS:audio
LIBS:interface
LIBS:digital-audio
LIBS:philips
LIBS:display
LIBS:cypress
LIBS:siliconi
LIBS:opto
LIBS:atmel
LIBS:contrib
LIBS:valves
LIBS:arduino
LIBS:NRF24L01
LIBS:handle_transmitter-cache
EELAYER 25 0
EELAYER END
$Descr A4 11693 8268
encoding utf-8
Sheet 1 1
Title ""
Date ""
Rev ""
Comp ""
Comment1 ""
Comment2 ""
Comment3 ""
Comment4 ""
$EndDescr
$Comp
L Arduino_Nano_Socket XA1
U 1 1 5AD3E808
P 5550 3600
F 0 "XA1" V 5650 3600 60  0000 C CNN
F 1 "Arduino_Nano_Socket" V 5450 3600 60  0000 C CNN
F 2 "Modules:Arduino_Nano_WithMountingHoles" H 7350 7350 60  0001 C CNN
F 3 "" H 7350 7350 60  0001 C CNN
	1    5550 3600
	1    0    0    -1  
$EndComp
Text Label 3800 4300 0    60   ~ 0
+3V3
Text Label 3800 4500 0    60   ~ 0
VIN
Text Label 3850 4100 0    60   ~ 0
GND
Wire Wire Line
	4250 4300 3650 4300
Wire Wire Line
	4250 4500 3650 4500
Wire Wire Line
	4250 4100 3650 4100
Text Label 7000 3600 0    60   ~ 0
MOSI
Wire Wire Line
	6850 3600 7400 3600
Text Label 7000 3700 0    60   ~ 0
MISO
Wire Wire Line
	6850 3700 7400 3700
Text Label 7000 3800 0    60   ~ 0
SCK
Wire Wire Line
	6850 3800 7400 3800
Wire Wire Line
	6850 3200 7400 3200
Wire Wire Line
	6850 3300 7400 3300
Text Label 7000 3200 0    60   ~ 0
CE
Text Label 7000 3300 0    60   ~ 0
CSN
Text Label 7950 3850 0    60   ~ 0
+3V3
Wire Wire Line
	8400 3850 7800 3850
Wire Wire Line
	7850 3950 8400 3950
Text Label 8000 3950 0    60   ~ 0
CSN
Wire Wire Line
	8900 3950 9450 3950
Text Label 9050 3950 0    60   ~ 0
CE
Text Label 9050 4050 0    60   ~ 0
SCK
Wire Wire Line
	8900 4050 9450 4050
Text Label 8000 4050 0    60   ~ 0
MOSI
Wire Wire Line
	7850 4050 8400 4050
Text Label 9050 4150 0    60   ~ 0
MISO
Wire Wire Line
	8900 4150 9450 4150
Text Label 9100 3850 0    60   ~ 0
GND
Wire Wire Line
	9500 3850 8900 3850
NoConn ~ 8400 4150
$Comp
L Conn_01x05_Female J1
U 1 1 5AD3EE34
P 2350 3200
F 0 "J1" H 2350 3500 50  0000 C CNN
F 1 "Conn_01x05_Female" H 2350 2900 50  0000 C CNN
F 2 "Pin_Headers:Pin_Header_Straight_1x05_Pitch2.54mm" H 2350 3200 50  0001 C CNN
F 3 "" H 2350 3200 50  0001 C CNN
	1    2350 3200
	1    0    0    -1  
$EndComp
Wire Wire Line
	2150 3100 1500 3100
Text Label 1600 3100 0    60   ~ 0
BLUE
Wire Wire Line
	2150 3200 1500 3200
Text Label 1600 3200 0    60   ~ 0
BLACK
Wire Wire Line
	2150 3300 1500 3300
Text Label 1600 3300 0    60   ~ 0
NATURAL
Wire Wire Line
	4250 3800 3600 3800
Text Label 3700 3800 0    60   ~ 0
BLUE
Wire Wire Line
	4250 3700 3600 3700
Text Label 3700 3700 0    60   ~ 0
BLACK
Wire Wire Line
	4250 4400 3650 4400
Text Label 3850 4400 0    60   ~ 0
+5V
Wire Wire Line
	2150 3000 1550 3000
Text Label 1750 3000 0    60   ~ 0
+5V
Text Label 1750 3400 0    60   ~ 0
GND
Wire Wire Line
	2150 3400 1550 3400
Wire Wire Line
	4250 3600 3600 3600
Text Label 3700 3600 0    60   ~ 0
NATURAL
$Comp
L MCP4728 U1
U 1 1 5AE641E6
P 5450 5800
F 0 "U1" H 4950 6050 50  0000 L CNN
F 1 "MCP4728" H 5950 6050 50  0000 R CNN
F 2 "Housings_SSOP:MSOP-10_3x3mm_Pitch0.5mm" H 5450 5200 50  0001 C CNN
F 3 "" H 5450 6050 50  0001 C CNN
	1    5450 5800
	1    0    0    -1  
$EndComp
Wire Wire Line
	4250 3300 3600 3300
Wire Wire Line
	4250 3400 3600 3400
Text Label 3750 3300 0    60   ~ 0
SCL
Text Label 3750 3400 0    60   ~ 0
SDA
Wire Wire Line
	4000 5700 4850 5700
Wire Wire Line
	3600 5800 4850 5800
Text Label 4350 5700 0    60   ~ 0
SCL
Text Label 4350 5800 0    60   ~ 0
SDA
$Comp
L R_Small R5
U 1 1 5AE6456F
P 4000 5450
F 0 "R5" H 4030 5470 50  0000 L CNN
F 1 "4.7k" H 4030 5410 50  0000 L CNN
F 2 "Resistors_SMD:R_0805_HandSoldering" H 4000 5450 50  0001 C CNN
F 3 "" H 4000 5450 50  0001 C CNN
	1    4000 5450
	1    0    0    -1  
$EndComp
$Comp
L R_Small R4
U 1 1 5AE645BA
P 3600 5450
F 0 "R4" H 3630 5470 50  0000 L CNN
F 1 "4.7k" H 3630 5410 50  0000 L CNN
F 2 "Resistors_SMD:R_0805_HandSoldering" H 3600 5450 50  0001 C CNN
F 3 "" H 3600 5450 50  0001 C CNN
	1    3600 5450
	1    0    0    -1  
$EndComp
Wire Wire Line
	4000 5550 4000 5700
Wire Wire Line
	3600 5550 3600 5800
Text Label 3600 5150 1    60   ~ 0
+5V
Wire Wire Line
	4000 5200 4000 5350
Wire Wire Line
	2600 5200 4000 5200
Wire Wire Line
	3600 4950 3600 5350
Wire Wire Line
	6050 5700 6700 5700
Wire Wire Line
	6050 5800 6700 5800
Wire Wire Line
	6050 5900 6700 5900
Text Label 6250 5700 0    60   ~ 0
VOUTA
Text Label 6250 5800 0    60   ~ 0
VOUTB
Text Label 6250 5900 0    60   ~ 0
VOUTC
NoConn ~ 6050 6000
Text Label 5450 5450 1    60   ~ 0
+5V
Wire Wire Line
	5450 5500 5450 5250
Text Label 5450 6400 1    60   ~ 0
GND
Wire Wire Line
	5450 6450 5450 6200
$Comp
L R_Small R3
U 1 1 5AE6503A
P 3200 5450
F 0 "R3" H 3230 5470 50  0000 L CNN
F 1 "100k" H 3230 5410 50  0000 L CNN
F 2 "Resistors_SMD:R_0805_HandSoldering" H 3200 5450 50  0001 C CNN
F 3 "" H 3200 5450 50  0001 C CNN
	1    3200 5450
	1    0    0    -1  
$EndComp
Wire Wire Line
	3200 5550 3200 6000
Wire Wire Line
	3200 6000 4850 6000
Wire Wire Line
	3200 5350 3200 5200
Connection ~ 3600 5200
$Comp
L R_Small R1
U 1 1 5AE65595
P 2600 5500
F 0 "R1" H 2630 5520 50  0000 L CNN
F 1 "R_Small" H 2630 5460 50  0000 L CNN
F 2 "Resistors_SMD:R_0805_HandSoldering" H 2600 5500 50  0001 C CNN
F 3 "" H 2600 5500 50  0001 C CNN
	1    2600 5500
	1    0    0    -1  
$EndComp
$Comp
L R_Small R2
U 1 1 5AE655BF
P 2600 5900
F 0 "R2" H 2630 5920 50  0000 L CNN
F 1 "R_Small" H 2630 5860 50  0000 L CNN
F 2 "Resistors_SMD:R_0805_HandSoldering" H 2600 5900 50  0001 C CNN
F 3 "" H 2600 5900 50  0001 C CNN
	1    2600 5900
	1    0    0    -1  
$EndComp
Wire Wire Line
	2600 5600 2600 5800
Wire Wire Line
	2600 5400 2600 5200
Connection ~ 3200 5200
Wire Wire Line
	2600 6000 2600 6450
Wire Wire Line
	2600 6450 5450 6450
Wire Wire Line
	4850 5900 3400 5900
Wire Wire Line
	3400 5900 3400 5700
Wire Wire Line
	3400 5700 2600 5700
Connection ~ 2600 5700
NoConn ~ 4250 2700
NoConn ~ 4250 2800
NoConn ~ 4250 3100
NoConn ~ 4250 3200
NoConn ~ 4250 3500
NoConn ~ 4250 3900
NoConn ~ 6850 3400
NoConn ~ 6850 3500
NoConn ~ 6850 3100
NoConn ~ 6850 3000
NoConn ~ 6850 2900
NoConn ~ 6850 2800
NoConn ~ 6850 2700
$Bitmap
Pos 2100 1300
Scale 1.000000
Data
89 50 4E 47 0D 0A 1A 0A 00 00 00 0D 49 48 44 52 00 00 01 BC 00 00 01 77 08 02 00 00 00 51 FD 69 
FF 00 00 00 03 73 42 49 54 08 08 08 DB E1 4F E0 00 00 00 09 70 48 59 73 00 00 0E 74 00 00 0E 74 
01 6B 24 B3 D6 00 00 20 00 49 44 41 54 78 9C ED DD 79 5C 53 57 FE 37 F0 AF 53 59 C6 A4 10 2D 01 
9E 42 09 08 CA 98 96 CD 16 A4 56 8A 75 AB 52 11 AD 99 BE 00 1D 05 B5 56 B4 55 AA 56 AD AD A8 D8 
3A 8A 1B DA 0A D6 9F 0A 38 55 78 FA E0 8A 15 2B B8 D0 38 96 C5 CA A2 C6 AA 28 84 09 1D 20 A8 21 
25 96 45 7F 3E 7F 04 31 84 00 39 08 04 F0 F3 7E F5 8F E4 E6 DE E4 0B 36 1F CE 39 F7 DC 73 FB 3C 
7E FC 98 00 00 40 3F 7F 31 74 01 00 00 3D 49 5F 22 92 AA 1E DE F9 E3 A1 A1 2B 01 00 E8 EE DE B1 
36 ED 4B 44 0F 1E 3E AE A8 79 64 E8 62 00 00 BA BB FF 45 F7 1C 00 80 09 42 13 00 80 01 42 13 00 
80 01 42 13 00 80 01 42 13 00 80 01 42 13 00 80 01 42 13 00 80 01 42 13 00 80 01 42 53 43 5D 9D 
A1 2B 00 80 EE AE 6F 3B 8E 79 58 5E 58 7C 35 4F 2A BB 47 64 6D 3D 54 68 E3 EC C4 33 D6 DE A7 FA 
CC B2 6D 3B B2 5B 79 13 13 1B 77 C7 F1 21 EF 4E 72 E7 B6 A3 02 AA AE BC 91 2D CD 2C 54 10 71 6D 
DD 6D 9C 85 B6 B6 3A DE A6 B1 06 C7 85 87 83 47 0F D0 F5 3E 75 B2 3D 73 E2 52 4A 88 88 C8 6E E8 
EA E8 F7 86 EA DC 4D E7 A1 65 65 57 F3 A4 57 4A AA 89 78 03 BD 6C 06 0B AD AD 9A FC 16 64 7B 46 
C6 A5 B0 FC 4C 1E 2B 3E 5D 33 BE ED DF 86 C6 E7 B6 F2 FB D7 BF CE C6 FD 6A AA 5B FD 9B 61 CC 35 
6D E5 53 00 9E 1B 8C A1 59 57 98 B5 36 FC F4 D5 EA A7 5B 0E 13 11 57 30 3B EA 83 49 42 53 96 77 
AA 2D CD 93 EC 0D 97 9C 1A FF F7 D5 2B FE 66 C5 70 A0 22 73 C3 0F 9B 4F 95 D7 37 6E 38 48 44 2F 
38 8C 0F F8 7C C5 AB 2C EF A3 95 98 5E 5F C5 BC EB A2 67 80 D7 95 1D 5F B6 7F 6F 5E ED D3 2D 07 
89 C8 E4 B5 8F 83 3F 17 E9 4A EF 8E 72 AF 38 E1 CB 83 87 25 4D AE 78 3D 4C 44 C6 56 A3 16 BF 1F 
36 DE 42 3B D4 58 EA BC 7F F6 70 C8 86 DB 2D 7F 76 CB 7F 78 00 9E 2F 2C A1 59 27 F9 29 7C 7E 76 
29 11 11 71 EC 9C 47 8C E0 28 B2 6F 5C 2E 54 D5 57 4B F7 CE DF 57 11 33 77 8E B0 F9 DB 09 C2 F6 
7C 30 C2 BA C9 26 55 99 EC EA A9 8B 7B 93 A5 2A A2 D2 53 FF 2F D6 5D AF 16 16 11 11 29 CE 2C 8B 
D9 91 FD 88 88 C8 98 33 78 C4 AB CE 54 7E 39 5B 5A 5A FD A8 E8 D4 E1 05 F7 1E EE 8C 72 D3 37 37 
9B 26 66 D4 9E 77 9D F5 6C 47 69 1E C8 7D 69 D8 28 67 DE BD DB 59 D9 E5 8A BA DA AB DF C6 2D 2B 
0B 8D FE D8 D6 98 88 C8 62 7C F4 3F 86 69 1D 5B 98 FD E5 B7 37 88 88 9C BC 96 7E EC CC 6B FA A2 
B1 75 AB 7F 75 EA 64 7B C2 FF D5 F0 B9 C6 1C 07 2F 67 0F EB 9A AB 67 6F DC BC F7 88 EA CA CF 6E 
D8 7D 9F E6 AF 19 CF 6B B2 BF 5E 75 36 A8 28 6C 25 31 01 A0 11 43 68 96 A5 6C 50 27 E6 4B EF 46 
CD 98 EF C5 25 22 9A FB 5E 75 DE 4F CB C2 B3 4B E9 6E 4A E4 19 9F FD CD A3 A7 AF D1 00 53 6E D3 
48 E4 3A 39 59 7D EC 34 54 78 E8 C3 48 49 3D 51 6E F2 0D D9 F8 D7 6D F5 A8 A0 FA C2 99 D8 EC 47 
44 64 E4 E5 17 15 F1 FA C0 86 B7 6D 48 D2 FA EC E3 B1 A7 1C F5 CA 5F 8D 40 31 72 1A FE 75 CC 68 
7D 13 93 E8 4E F2 71 F5 81 36 93 82 BE 5E EC D4 9F 88 68 F4 FC EA E2 3D F3 FF 95 52 42 A5 C9 87 
F7 8F 9A 3F 47 D8 97 C8 D4 D6 DD 5E FB 87 32 BE D1 F0 60 80 F5 6B EE F6 FD F5 FD 4C F5 E7 1E 6E 
F6 B9 44 1F 53 F9 D9 63 6B 23 0B 4A E9 51 EE D6 7F 5F 19 F5 9E 8B 71 E3 FE 7A D6 A9 56 5D A1 8E 
D7 F1 7F 8F FF D8 DE 48 57 01 C6 9D D8 84 06 E8 41 F4 3E 11 54 7D F6 E7 FD 25 44 44 96 A2 49 73 
BC 9E 7E 81 B8 EE EF 2E 9D FB 12 11 51 59 F6 A1 0B 35 FA 7F 72 FF 51 AF 8F 57 3F 2A AC BC AF D7 
11 65 3F 7D 2B A9 27 22 72 0C 5B D1 98 98 44 C4 1B 1D F1 FE 08 63 22 A2 DC F8 FC 3B 6D BE 8D 66 
62 0A 47 45 B1 24 26 55 5F 4B DA 7D 97 88 C8 DA 6B D1 C7 4E 4F 53 8F 6B 3F 27 62 94 0D 11 51 55 
CA C1 1B D5 2D 1C FD 0C 64 67 E3 AB 88 88 84 7E 2B 17 3B 69 A6 AD D5 A8 F7 C2 26 BD 40 44 54 77 
39 AB B0 DD 75 36 84 A6 83 D0 A2 3F D7 94 AB EB 3F 0C 68 02 10 91 FE A1 59 73 F5 82 BA 95 64 33 
55 64 AB F5 FD 19 38 FE 2D 0F 22 22 CA 3A 75 5B BF F8 53 7B DA CA D5 EB 0B 59 78 FB 54 19 11 91 
D1 A4 E1 3E 5A 83 6B DC BF 4D 52 07 47 59 86 58 D2 EA 9B 68 26 A6 97 5F 74 F4 5B 03 59 C2 A0 3A 
EF B7 2C 22 22 1A 1C 3C 4C 3B 6A 9D DC A6 7A 11 11 D1 85 FC DC 7B 0C EF A9 97 92 F2 AB 75 44 44 
96 23 6C 9A 35 C9 FB DA 0A ED D5 8F 2A CA AA DB 59 67 5D 75 79 19 11 91 CD 00 B4 27 01 5A A7 67 
68 D6 C9 2E 9F 25 22 22 6B E7 C1 D6 CD 5E 1D 60 E5 A2 DE 98 5D 5C A4 FF AC 9D B2 F2 86 CE AA 97 
B5 A5 1E BB CB 24 D7 2A 88 88 68 98 97 75 F3 A0 B3 71 77 26 22 A2 47 B9 85 95 2D BE 45 93 C4 9C 
B4 33 EA 75 ED F8 6F C3 C3 9B D9 EA 48 36 F7 16 F2 9A BD CA 75 70 37 27 22 A2 DB 57 0A 3B 7A 49 
E7 EA 87 E4 64 E5 E0 64 F5 9A 9D 8E 50 53 D5 35 64 A5 A5 35 B7 9D 75 DE 53 95 12 11 99 0F 6C 7D 
5C 15 00 F4 1D D3 2C AB BA A9 7E E0 65 A5 6B F0 91 67 23 24 2A 23 A2 BB F7 EF 11 35 4F D5 E6 AA 
CB 4E 6D FD E9 26 11 91 B9 7F F0 AB 7A 8C EE 3D AC 28 2C 27 22 22 2B 17 3B 1D 5F 6C AE B5 B5 25 
49 2A 88 8A 4A AA 89 2C 74 BC 81 76 62 EA 7D CA E8 29 45 45 43 33 D6 D1 C1 4E C7 CB 96 76 36 44 
55 44 54 7A AF 9A A8 79 5A 3D 03 E1 B0 E8 3D DA 67 95 1A D4 C9 4E 25 97 13 11 19 0F 1D E6 D4 DE 
3A EF 95 5D 25 22 B2 B1 19 50 23 93 DC BE 7A A1 AC 9C 88 88 6B EB 2E 78 CD BD 85 29 4A 00 CF 29 
3D 43 B3 BA B2 48 FD C0 58 E7 D8 96 69 FF 86 FE B2 B4 48 3B 34 2B C5 F1 67 64 4D 9B 47 AA 12 F5 
69 5C 22 63 AB 51 11 1F CC 71 D7 A7 88 9A FB 65 EA 07 5C 23 9D 3D C8 01 5C 1B A2 0A 22 2A A9 BA 
4F A4 9D C2 D5 B2 3D E1 4F 4E 25 13 59 DA BD C4 74 12 A6 B1 06 59 C3 A0 61 5F 8E AE DF 02 F7 49 
DF F6 6A 61 47 87 A6 96 86 39 95 0F 15 85 37 0E 7D FB D3 D9 12 22 32 19 B6 E2 AD 27 67 81 98 EB 
BC 5F 72 97 88 88 6E EF 98 B1 49 A5 39 22 7B 90 C8 98 E3 31 F7 83 A5 9D 3A 95 0A A0 27 D1 2F 34 
AB EF 35 7C 93 5E 73 62 FD EE 54 E5 1E BF 98 DB C2 6B 46 4E 82 A1 FA F6 07 AB 15 0D 91 F7 92 25 
F3 6C C1 E2 D8 39 B7 EB 35 C6 0D 4A 93 0F EF 1F 31 5F BF B0 D6 2C A1 BA 61 C4 D6 DD BA 33 13 B1 
6D CD E6 54 BE E4 1F 35 E3 E9 D9 39 F6 3A 2B 4A 8A 89 88 A8 56 55 4D 46 03 6C 86 8D 12 58 1A 3F 
AC C8 CB BF 20 A9 A5 3A 55 AE AE 29 4A 00 CF 2B FD 72 A3 BE BA 61 82 B4 11 F3 25 44 E6 1E 93 5E 
75 D0 4A DA EA BB B9 79 C5 45 25 B5 F5 92 EC CD 73 7E 3D 14 3C 23 6A 6E 9B 5F C8 87 4F 5A 9A FA 
9D 35 6A E2 91 3A 31 6D 26 05 CD B1 3E BD 76 F7 5D A2 AA 94 65 C7 5E 3B 3C D5 9B E9 4F 40 5D AD 
EA 49 05 DD 2C 3E EE A6 2C 8B 29 FA 78 C6 6A 91 B5 31 B5 A3 CE 9A FB 65 EA 09 F3 2F 8D 5A F1 81 
C6 24 F9 77 C3 0A 7F DD 3C FF 64 6E 1D 95 26 EF DF EE BE F8 B3 11 18 F1 04 D0 2F 03 8D B8 26 ED 
FD 00 0B 9F 90 D1 CD AF 24 99 49 54 5D 98 BF 37 F2 F8 D9 92 47 45 07 F7 6F 17 AA BF 90 BA 2F BE 
F4 8F 59 35 47 D8 B7 BF B5 7A D8 B4 9D 6C 44 FF 88 FA D8 9E 4B BC B0 0B B1 B1 12 A2 3A C9 E6 48 
27 1D 23 9B 92 9F 02 E6 37 AB C0 6B 52 7C 94 5B 7F 63 13 4E FB 3F BF 23 F5 1F 1F 7C 4C 3D 5D AB 
4E 71 E3 54 46 EC B7 05 45 75 B5 57 BF DD B7 7E C0 C2 35 A3 B8 C4 5C A7 A9 73 F0 3F BE 9A 44 C4 
B5 70 69 DA 93 E0 3A BD BE F2 AB B2 E0 65 97 EB E9 D1 85 83 D7 66 8C 78 9D 7D 20 18 A0 97 D1 EF 
EC F9 D3 51 B0 12 45 AB 3B 9A F7 D7 BB 0D C6 75 72 0B 5B E1 65 49 44 F4 E8 C2 F1 1B 6D CD 55 E2 
F2 1A CE 69 DC AD 68 7D 42 0F D7 A4 D9 DC EC 17 1C 82 43 A3 3F B6 E7 12 11 59 8C 8F 98 A4 9E 20 
55 9F FD 63 EC A9 D6 7F 1C AD 77 E6 36 8C 84 E6 55 56 B4 BA A3 E5 80 F6 5C D2 DF 1E C6 3C E7 49 
01 51 51 0D BF C6 DC DD F9 77 A8 3D 75 F6 77 B2 77 71 B7 77 D1 35 F6 62 EC F5 7A 90 7A 90 5A 72 
E3 66 87 4F A5 02 E8 79 F4 FC 76 73 2D 1C 88 8A 88 EA AB 6B EA 74 74 90 9F 5C 4F 42 16 4C 03 8E 
C6 42 E7 61 94 9D 42 44 D9 65 15 E4 D6 9F 4C 5F 0B F9 C7 57 C1 DA BB F5 B7 23 22 D3 FE 0D E7 97 
AA 55 D5 44 CD 3F A5 AC F2 2A 11 11 19 59 73 9B 7D F5 ED FD 35 E7 96 5A BB 85 AD B8 B6 60 C3 ED 
7A 7A 94 BB E1 F0 29 E1 AC F1 9A A7 98 ED 5E FF 2A DA B9 59 A1 3C 0E 11 91 A9 AD 13 51 21 51 5D 
8D 4A D7 6F E1 7E 99 FA 74 0A D9 58 77 E9 59 13 63 77 B7 F1 D6 D9 FB CB 88 CA A4 A5 F7 DE 1A 38 
A0 63 EB E4 F2 EC 1A DA F8 58 04 0A 40 EF D0 1C C0 B1 21 2A 22 22 49 55 05 51 B3 59 47 8A 3B 79 
44 44 64 2D B0 79 A6 35 1D FA 5A 09 ED 5B E8 00 F6 E5 59 9B 13 55 11 95 DF 29 7B 48 76 DA 75 DF 
2F 6B 58 C2 63 98 50 D7 7C A3 A6 AC C6 FB 85 9D 55 5F C3 5E 1A FB E5 19 87 3D 1A 17 05 71 2D 5C 
DC 5B 7A 07 2E CF 8E A8 90 88 4A 2B CA 88 9A CD E6 A9 28 2C 26 22 22 73 17 5D B3 29 9F 41 9B CB 
35 69 E5 9A A1 EA 04 78 1E E8 39 B9 9D 6B 3B 54 7D 19 49 61 FE D5 E6 03 8B 25 E5 B9 75 44 44 46 
23 04 03 99 3E BD B0 54 7D E1 0A 39 59 B4 39 0C 37 D0 DD 59 DD EF 3E 7B 41 D6 AC C9 F3 B0 28 4F 
7D 36 D9 71 A8 5E 8B 2D F1 46 AF 08 F0 50 07 65 C9 C5 ED BB 9B BF A1 4E A6 CE 5E 8E 44 44 54 7E 
26 AF 79 BF BE B2 A8 61 25 11 E7 D7 9C F4 7A 3B BD 71 2D 1B 82 AF B8 48 F7 A8 6E E3 D4 02 F3 FE 
5C E6 3A CB 4F ED 0F 18 B9 2E 60 E4 BA 98 6C 5D 73 F2 EB CA 6E A8 C7 78 8D AD 6C B1 CA 11 80 DE 
97 51 72 87 8D 57 77 5A 4B 0F 9D D5 FA E2 3E BC 72 FC DF 45 44 44 E6 41 E3 F5 59 76 E3 89 BA B2 
43 5B CF AA 07 DD 06 4F 72 6C FB 48 A1 9B 7A 70 AD FE 78 76 96 D6 D5 DD 65 D7 8E 1F 27 22 A2 11 
6E C3 F4 FC 62 0F 78 75 E5 57 43 D5 29 5C 9A BC 7F 8F CE BC 68 A6 FF 08 37 F5 14 F3 9B 07 AF 69 
5D E4 5E 97 F7 EB A1 42 22 22 CB 10 B7 66 DD FB 67 E5 E0 2E 24 22 A2 47 59 67 75 E4 7B 5D 5E BE 
FA 02 53 1A 61 3F D8 98 B9 4E 2B 27 47 F5 15 59 67 4F 15 36 BF 6A BE FC 6C F6 4F A4 DE FF D5 0E 
FF B9 00 7A 20 BD 17 EC E0 8E 18 FE BE 1D 11 51 C5 EE C3 DB CF 3E 6D BF 94 9F FA 61 6D 72 15 11 
19 79 8D 1E A5 A3 85 55 5D 94 57 7C 45 FB BF C2 33 C9 3F 7E F1 FE FF EC 57 5F B8 62 37 2A 6C 92 
3E 13 0A AD 47 CD 75 34 22 22 BA B1 7D D9 BF 9F AE 36 51 5D BC 67 D9 F1 5C 22 A2 97 DE 0F 76 D6 
BF C3 69 EC F5 EE 6A 91 FA 82 C2 47 3F 7D F9 83 58 9F B3 1C 5C E7 A9 C1 EA D5 49 CE 6E DE 70 AD 
BC 71 7B 59 FE FA 65 D9 15 44 64 EC 38 63 BC 3E 57 44 B5 EC 5E FE 9A 91 EB 02 46 AE 0B 18 79 F0 
CC 93 92 B8 5E AF BF 6B 4C 44 54 91 BC 7F FD F1 32 CD 68 BB 9F 77 E6 0B F5 47 93 B9 7F E3 8F CF 
54 A7 93 F3 54 21 11 51 FD D9 C3 9B 9B BE 79 F9 D9 63 6B D5 13 42 9F FD E7 02 E8 25 F4 3F CD 6B 
6C 1B B4 C2 2B 6B 7E 76 29 DD 3D 1B F9 4D 56 BC 95 A5 31 D5 95 95 97 AA BF 64 C6 8E 61 8B 75 5E 
0D 59 9E 12 F9 AF 56 16 30 37 72 1A BE 3A FA 2D 3D 3B F5 FD 47 F9 85 9D 8A D9 91 FD A8 5E 72 76 
D9 FB 59 0E 76 5C A2 6A 59 A1 4A 3D 9A 69 23 9A 14 A4 63 41 CF 56 F4 75 99 FB BE 7F 76 5C 4A 09 
51 DD ED ED 1B F2 07 B7 7D 6D 65 5F E7 90 49 FE 17 E2 52 4A A8 F4 D4 E1 B9 17 32 1C AC FB 52 9D 
A2 A8 44 3D 8F F5 05 8F C5 7E DA 8B 89 74 08 63 FB 39 D1 5E 57 E7 67 97 D2 A3 DC AD FF 33 ED 5B 
8E 83 1D 97 48 E3 F7 4F 2F 0C 9E FB C1 8C A7 3F 3E 53 9D 16 E3 23 26 65 CE 38 9E 5B D7 F8 E6 B6 
96 D6 0A 59 5E E3 9B BF E4 1F FD 41 A7 FC 5C 00 3D 0F CB 3D 82 8C 85 EF 46 EF F7 1B 31 E0 05 22 
52 95 94 17 15 36 7C A9 38 EE A3 BE 4A 0A 1E CD D2 10 31 1A 60 E5 30 C2 6B 61 CC 27 07 F7 8C D6 
77 BD 74 22 22 DE E8 A8 85 AB 45 36 1C 22 AA 53 15 15 96 17 A9 13 D3 D8 6A D4 8A B0 F6 5C B2 62 
6C 3B 63 85 97 0D 11 11 D5 67 1F D7 6B 06 92 B1 ED 9C 3D 61 61 A3 38 46 44 54 7D B7 A8 B0 BC 21 
89 B8 82 19 D1 0B 9B 2C 03 DC A1 8C 85 EF 46 ED 99 34 CA 49 BD 0A 9C FA 67 6F F8 FD 1B 0D 70 9C 
11 BD 70 53 70 D3 75 4C 98 EA B4 76 5B 93 F4 8F 19 5E 1C A3 86 37 BF 91 75 A1 F1 1F D7 6B E9 7E 
9D CB 4B 03 3C 9F FA 3C 7E FC F8 7A 55 7D C1 7D 86 E9 24 0F EF 97 94 C9 0A CB 2F 17 3E B4 75 B7 
72 B0 B3 1D 68 DD E5 DF A8 3A C5 1D 49 65 51 A1 54 66 6C 3D D4 C9 CA D6 C9 42 FF F9 A1 1D 56 C2 
BD CA A2 92 F2 A2 EC B2 3A 3B 81 83 93 45 EB 37 EA E9 C8 CF 2D 2B BB 51 76 B7 34 BB AC 9C 78 03 
BD AC 1C EC AC 6D 5B 9D 16 CA 56 67 9D E2 8E 44 D1 70 41 11 99 5A B6 74 43 21 80 E7 D4 DF ED 39 
ED 09 4D 00 80 E7 D3 DF ED 39 B8 85 2F 00 00 03 84 26 00 00 03 84 26 00 00 03 84 26 00 00 03 84 
26 00 00 03 84 26 00 00 03 84 26 00 00 03 84 26 00 00 03 84 26 00 00 03 84 26 00 00 03 84 26 00 
00 03 84 26 00 00 03 84 26 00 00 03 84 26 00 00 03 84 26 00 00 03 84 26 00 00 03 84 26 00 00 03 
84 26 00 00 03 84 26 00 00 03 84 26 00 00 03 84 26 00 00 03 84 26 00 00 03 84 26 00 00 03 84 26 
00 00 03 84 26 00 00 03 84 26 00 00 03 84 26 00 00 03 84 26 00 00 03 84 26 00 00 03 84 26 00 00 
03 84 26 00 00 03 84 26 00 00 03 84 26 00 00 03 84 26 00 00 03 84 26 00 00 03 84 26 00 00 03 84 
26 00 00 03 84 26 00 00 03 84 26 00 00 03 84 26 00 00 03 84 26 00 00 03 84 26 00 00 03 84 26 00 
00 03 84 26 00 00 03 84 26 00 00 03 84 26 00 00 03 84 26 00 00 03 84 26 00 00 03 84 26 00 00 03 
84 26 00 00 03 84 26 00 00 03 84 26 00 00 03 84 26 00 00 03 84 26 00 00 03 84 26 00 00 03 84 26 
00 00 03 84 26 00 00 03 84 26 00 00 03 84 26 00 00 03 84 26 00 00 03 84 26 00 00 03 84 26 00 00 
03 84 26 00 00 03 84 26 00 00 03 84 26 00 00 03 84 26 00 00 03 84 26 00 00 03 84 26 00 00 03 84 
26 00 00 03 84 26 00 00 03 84 26 00 00 03 84 26 00 00 03 84 26 00 00 03 84 26 00 00 03 84 26 00 
00 03 84 26 00 00 03 84 26 00 00 03 84 26 00 00 03 84 66 17 F9 DF 47 8F 7E BF 73 D3 D0 55 00 C0 
B3 42 68 76 91 07 D5 CA 6F 16 CD 32 74 15 D0 CB 29 32 96 45 06 4E 88 FC E2 FB D2 5A 43 97 D2 7B 
21 34 01 7A 11 65 89 24 4B 2C 39 38 6F 49 E0 A2 8B B7 6B F4 3F 2E FF E7 F4 63 BB B6 76 5E 5D BD 
09 42 13 A0 D7 79 7B 8C 9B 6C EF 8E 31 43 37 EF 13 2B F4 3B A2 46 55 FD C7 BD BB 9D 5B 55 6F 81 
D0 04 E8 75 BC 57 7E 7E E6 6C D0 DB 35 97 D6 4D 98 37 22 F0 D8 E9 1B 2A 43 57 D4 9B 20 34 01 7A 
23 33 AF 80 84 CB 5B 76 CC 17 D6 9E 48 FC E8 F5 D9 23 02 8F A5 64 2B 30 D0 D9 11 10 9A 00 BD 15 
CF C6 3F 2A E2 CC AF 4B 96 4D E4 97 9E 48 5C 38 6A DE DF 84 5F 2E 5D 96 71 BA 40 AE 64 18 EE 04 
2D 7D 0D 5D 00 00 74 26 33 67 CF B0 24 CF 69 D2 BC 94 AD A9 B1 7B F3 0F C5 14 1E 8A 21 22 B2 18 
3C 23 E1 B2 9F D0 D0 E5 F5 40 08 CD CE 25 97 49 E5 A5 25 44 F4 67 75 F5 9F AA 6A 49 96 98 88 04 
43 5C 38 66 3C 43 97 06 CF 13 33 81 FB B4 ED EE D3 36 2A 24 69 F9 C9 27 D2 4E 1F 28 2C BD 59 8F 
DE 7A BB 20 34 3B 57 B1 A4 60 CB 47 41 8D 4F 23 03 27 10 D1 86 1F 2F 72 84 08 4D E8 7A A6 3C A1 
BF 6F 84 BF 6F C4 77 54 AB A8 33 31 74 39 3D 13 C6 34 3B 97 BD D0 55 CF 8D 00 5D CA 84 67 6C E8 
12 7A 28 B4 34 3B 17 DF 56 C0 B7 B1 53 F7 D0 D5 84 C3 7C 0C 58 0F F4 6E BC 71 BB F6 E6 13 99 A0 
1F D3 89 D0 D2 EC 74 82 A6 ED 4A A1 37 42 13 3A 8D 09 8F 63 C6 E3 A0 DF DD 99 10 9A 9D 4E AB 33 
2E 10 BA 18 AA 12 00 78 76 08 CD 4E A7 D5 B4 44 4B 13 0C 4C 9E BC D9 81 1B E8 C0 3D 96 6B E8 4A 
7A 26 84 66 A7 D3 6C 5A F2 6D EC 30 D9 08 A0 47 C3 89 A0 4E C7 31 E3 35 9E 0B 42 33 13 0C 8F 3F 
31 2C 5F 46 44 46 66 86 AE A4 67 42 68 76 05 81 D0 55 1D 9A 02 4C 36 62 24 97 49 2F A5 FD 58 2C 
29 A8 F8 4F 31 11 BD FA E6 DB F6 42 D7 37 C6 4E 34 6C 55 92 2C B1 24 53 5C 74 35 AF E2 3F C5 2E 
6F BD 23 10 BA 0A 87 8D E0 DB 0A 0C 5B 95 DE 4C 39 66 A6 86 AE A1 07 43 68 76 05 7B A1 EB A5 B4 
13 84 19 9A 8C 52 E3 62 92 B7 AF 57 55 3D 5D DE EC 7A D6 05 22 B2 17 BA 2E F9 2E D1 20 21 A5 52 
2A B6 7C 14 24 C9 14 37 6E F9 CF 0D 09 11 71 CC 79 F3 A2 62 3D C7 F9 77 7D 49 D0 C5 30 A6 D9 15 
1A 7B E5 E8 9E EB 2F F6 B3 79 09 91 CB FA D2 E3 B8 B8 B8 A2 A2 A2 2D 5B B6 7C F3 CD 37 E7 CE 9D 
5B B4 68 51 B1 A4 E0 F3 89 6F E5 9C 4E D1 79 E0 AD 8D DC 40 07 8D FF E6 26 EB B9 A6 64 9B 8A 25 
05 0B DF 7E 4D 92 29 0E 08 08 38 77 EE 5C 61 61 A1 A7 A7 67 6E 6E 6E 5C 5C 5C 5F 7A BC E5 A3 A0 
D8 CF E6 B5 F1 16 CA B4 3D 9E DC CD 29 E5 1D 54 51 4B 14 A5 99 C9 69 91 1F 45 06 BE F3 49 E3 EF 
C1 73 68 64 60 E0 9E 8D DF E7 48 3A FB D3 7B 39 B4 34 BB 82 3A 2B F9 AF D8 1B BA 90 1E E3 E4 BE 
9D 19 C9 DF FB FA FA 1E 3D 7A 94 C7 7B 7A EA 6C E4 13 21 21 21 BB 96 85 09 BD 7D 9A 9D 58 2B 97 
DF 26 E1 57 17 97 F8 DB 3D D9 62 CA E9 88 92 54 4A C5 BA 20 BF BE 7D 1E 1F 39 72 64 F2 E4 C9 44 
54 59 59 49 44 EE EE EE EE EE EE 23 47 8E 9C 3C 79 72 46 F2 F7 82 21 2E 7E B3 16 B4 F0 1E 8A BC 
8D 1F A5 57 D2 1B 1D 51 4F 4B EA 24 7B 76 CC 0D BF 54 AA 7E 66 F9 F2 30 9F 86 45 39 6A A5 92 AC 
13 92 AC 13 E9 BB C8 7C D8 E2 45 BB 23 85 18 D3 6C 17 84 66 17 B1 71 72 FE B3 FA 0F 43 57 D1 33 
C8 65 D2 43 3B FE 69 6E 6E AE 95 98 8D 26 4F 9E BC 66 CD 9A 4F 3F FD 74 D7 67 61 4B BE 4B 6C FA 
62 B9 3C 97 5E 9E D6 F1 B3 14 76 7D 16 A6 52 2A B6 6D DB A6 4E 4C 2D F6 F6 F6 E7 CF 9F B7 B7 B7 
3F B4 E3 9F 9E E3 26 EA 1C 3A 50 65 AC 8E 3D 4D E6 1D 5B 96 16 79 4A EC CC F0 4B 95 96 C2 D0 C8 
A0 59 A2 41 B6 5A 63 97 35 AA DB E2 8C 8D 8B F6 A7 6D 8D 9C 69 BE 21 69 89 3D A6 C1 B3 43 F7 BC 
8B D8 3A FD 0D 93 8D F4 94 91 7C 40 55 A5 88 8E 8E D6 99 98 6A E1 E1 E1 BE BE BE 39 A7 53 E4 32 
69 93 17 6A AB 14 95 96 7C 7E 07 FF AA 55 4A 45 CE E9 14 5F 5F DF F0 F0 F0 96 F6 E1 F1 78 F1 F1 
F1 AA 2A C5 C9 7D 3B 75 BC 5C 2B 4E 5E 9A E2 B9 79 BB 5F C7 56 D6 54 71 CA FA 5F 2A C9 6D D3 B9 
88 88 E9 CD 12 93 88 4C 39 8E 63 FD 76 5F 8E 08 B5 A4 BC D5 E9 99 1D 35 6E F1 7C 41 68 76 11 9B 
41 43 4C 39 5C 43 57 D1 33 A8 4F B3 84 84 84 B4 BE 9B BA C5 57 2C 29 68 B2 55 59 2E 27 AB FC 8D 
EA B1 3C E1 97 4B 77 DE 52 76 40 49 52 C9 15 22 1A 39 72 A4 3E 25 A9 77 6E AA 46 B2 71 E6 45 EF 
ED 22 5F AB 0E A8 A6 45 E5 BF 67 5E 21 9A E8 EB DB FA 29 32 53 A1 FF 02 22 4A 97 E0 9E D2 ED 81 
EE 79 A7 90 DD BA 7E F7 77 99 E6 16 8E 99 59 ED 9F 0F F2 33 D2 0C 55 52 0F 72 E7 4A EE C0 81 03 
4F 9D 3A A5 B9 F1 B7 DF 7E EB DB B7 AF E6 C6 BA BA 3A 22 92 4A AE 34 39 67 2D 57 D4 0F 13 B8 CD 
DA 3E 21 C1 CA 58 59 90 F1 C5 E4 55 33 6B 9E BD 1F 9A 95 7A 94 88 6A 6A 6A E2 E2 E2 1A 37 56 57 
57 57 56 56 6A 6E 21 A2 57 5E 79 A5 E8 6A 9E D6 E1 75 99 11 DB 53 7C 66 1E F1 E7 51 F6 33 D5 D1 
16 23 F5 8F D9 F6 42 99 55 44 64 4E 98 78 D4 1E 08 CD 4E 51 72 FD EA F5 EC 7F 6B 6E F9 B3 FA 8F 
3F EE DF BD 94 F6 A3 A1 4A EA 41 1E 3E AC 53 2A 95 C7 8F 1F D7 DC 78 ED DA B5 BF FC A5 49 C7 A8 
B4 B4 54 C7 C1 C2 39 9F 27 CD 69 78 6C E6 EA BB 3C 32 C3 27 22 FF F6 12 FB 67 5B A2 FC 61 5D 1D 
11 C9 E5 72 0E E7 E9 59 A5 07 0F 1E D4 D5 D5 C9 64 4D FE 3A BE F0 C2 0B 7F AA 9A 0E 5E D7 8A 13 
3F 89 19 14 71 6D B8 ED 33 D5 A0 07 2B 7B DF 31 74 E2 C4 C9 94 6C B7 30 AF 96 4F 7F 49 33 62 B7 
12 59 FA 7A 0C EE EC 82 7A 25 84 66 A7 18 3E E9 EF C3 27 FD 5D 73 8B 5C 56 12 FB D9 47 B3 BF 8A 
36 54 49 3D 48 69 E1 0D 49 96 38 26 26 46 73 E3 D6 AD 5B 8D 8D 8D 3F FE F8 E3 C6 2D D1 D1 D1 C7 
8F 1F D7 5A 00 45 25 CB 96 CA AD 9C 3C 04 1A 8B 45 5A 19 3D 73 49 EE EF 8C 3B 93 14 E7 E2 E2 A2 
39 A6 59 59 59 79 E6 CC 99 55 AB 56 69 EE 19 11 11 A1 BD FA 9F 24 3B B5 92 68 E1 AB 81 0B 9F 6C 
59 E8 18 B8 70 ED BA A2 25 83 9E B9 30 2D 7C FF 95 41 07 D2 13 A3 46 2D CE 98 26 9A B5 C0 DD DB 
CE DC AC 71 DD CC 1A 95 5C 2A CD 3C 71 72 E3 EA 4B A5 64 3E 31 6A AC 37 5A 9A ED 81 D0 84 6E 47 
20 74 91 64 89 CF 9F 3F DF FA 18 62 5E 5E 1E 11 69 9D A7 36 92 9D D8 1E 24 F6 8D 4F 12 F9 5A 91 
B2 E0 97 8D 11 92 B7 23 C3 9E F9 4E 38 EA AB 12 D4 9F D8 66 49 DA 0B 59 79 2C 49 2A 5A F2 E4 49 
F6 31 87 51 B7 76 DC 5E EA DF 39 83 9B 26 5E 01 09 67 8D 96 86 EC 4F 3B B0 37 EB 40 0B 3B D9 B9 
85 6E 9C 13 E1 CF EF 94 0A 7A 3F 84 26 74 3B BE A2 E9 A9 71 31 A1 A1 A1 B9 B9 B9 2D 9D 40 3F 7F 
FE 7C 42 42 82 70 98 8F D6 45 56 C6 DE 2B 23 BE DB 79 3C FA 9D 19 21 25 64 E3 F9 C6 B8 A8 2D 5F 
8B 9E 3D 1D F8 B6 02 E1 30 9F 84 84 84 90 90 90 56 A2 3C 34 34 94 88 0C 7C 5D 90 99 97 DF 6E C9 
18 E5 8D C2 0C 71 B1 E4 8A 24 F7 E6 83 86 ED 83 9D BC 5D EC 1D BD 06 79 BB F2 31 D3 E8 19 20 34 
A1 DB B1 17 BA 8A 16 AD 4C DE BE FE D3 4F 3F DD B6 6D 5B F3 DC CC CB CB 9B 32 65 0A C7 CC 3C 6C 
F3 AE 66 47 9B DA 8C 5B 12 36 6E 49 58 47 57 15 B6 79 D7 8A F7 86 87 86 86 1E 39 72 C4 DD DD BD 
F9 0E A1 A1 A1 79 79 79 13 42 E7 B7 7A DD 97 57 40 51 75 47 97 A6 83 B1 99 B3 D0 DF 59 E8 4F 9D 
3A C3 E9 F9 84 29 47 D0 1D 89 C2 57 0A 86 B8 C4 C7 C7 BF F3 CE 3B C7 8E 1D 6B DC AE 50 28 D6 AE 
5D EB E1 E1 A1 50 28 66 AC DA D8 95 97 9F F3 6D 05 33 56 6D 2C 2E 2E 7E E7 9D 77 B6 6F DF AE F9 
52 71 71 B1 87 87 47 7C 7C BC 60 88 8B 28 7C 65 97 95 04 06 81 96 26 74 53 1B 4F FE 92 1C BD 3E 
79 FB 7A F5 E4 C7 97 5F 7E B9 A6 A6 E6 93 4F 3E 21 22 BE AD 5D D8 A6 EF BA FE 42 7E 5F D1 74 BE 
AD 60 F3 47 81 E1 E1 E1 E1 E1 E1 AF BD F6 9A 54 2A ED DF BF BF 42 A1 20 A2 09 A1 F3 45 E1 2B 71 
09 43 AF 87 D0 84 EE 4B 14 BE 52 E8 ED 23 C9 14 4B 32 C5 45 D7 F2 39 2F 9A BD 31 76 B8 D0 DB C7 
57 34 CD 50 D9 24 F4 F6 F9 46 7C 2D 75 5F 8C 24 53 7C 5B 92 FF E7 1F 7F 08 86 B8 B8 8D 7E CF 57 
34 1D AB B1 3C 27 10 9A D0 AD 09 BD 7D BA 5B 18 71 CC 78 E8 83 3F CF 30 A6 09 00 C0 00 A1 09 00 
C0 00 A1 09 00 C0 00 A1 09 D0 1B D5 16 E4 64 6A 2C 9A 57 AB 50 29 15 2A 65 8D E1 0A EA 3D 70 22 
08 A0 37 AA AD BA 15 1D 98 3E 6E FB 04 93 13 A9 FB 52 F2 EF 54 3C 79 C1 CE 2D 78 71 40 F8 1C 21 
2E A2 6C 2F 84 26 40 6F 64 E6 13 BC 79 E5 3F 7D A6 6C 20 22 8B C1 6E C1 D3 DD 1C AD 48 56 70 29 
23 2D FF 60 78 FE C1 03 41 87 8F 04 78 60 4A 69 7B 20 34 01 7A 25 45 4E F4 BC 7C 22 A7 61 3E 55 
E4 19 B0 BC E1 8E 40 7E 44 8A 8C 88 1D 4B B7 26 CE 5D 2D 38 B3 DD 1D B7 09 62 87 31 4D 80 DE 48 
9E 9E 71 88 E8 ED 5D 8B 92 52 23 C2 AA 0E FA 7D 94 71 BB 61 40 93 E7 1B 19 B6 7C 0C 55 EE 4D CF 
C0 6D 29 DB 03 2D 4D 78 4A A5 54 5C CF BA 50 2C 29 90 64 8A F9 B6 02 7B A1 EB 90 61 23 70 AF F6 
1E 49 26 BD 44 44 DE 83 F9 44 E4 BB 3D 62 F7 CE 2D 33 A7 94 6E 4E 0C F6 E6 11 11 DF D1 87 28 FD 
92 4C 4A D4 A9 B7 DF E8 9D 10 9A D0 40 92 29 DE F2 51 90 4A D9 78 B3 2D 71 06 11 11 79 8E F3 9F 
B7 29 16 97 54 F7 30 26 A6 02 22 A9 BC B6 8E C8 98 C8 58 B8 E0 F3 93 AE 07 67 0E 8F 9D 76 64 B6 
C8 99 6A CB 89 48 60 82 45 88 DB 03 DD 73 20 22 DA BF 6E 79 64 D0 84 BE 7D 1E AF 5E BD FA DC B9 
73 C9 C9 C9 1F 7E F8 E1 91 23 47 02 02 02 72 4E A7 2C F4 79 4D FB FE 65 5A E4 C9 9B 1D 02 2F CA 
BB AA 5C 68 93 D0 C7 77 08 51 DC 96 74 C9 93 69 46 66 3E C1 49 47 84 19 13 22 37 7E 9F BE 2F 86 
C8 C5 D7 1B 7D 88 F6 40 68 02 E5 9C 4E 39 B9 6F A7 9B 9B 5B 5E 5E DE 9A 35 6B D4 8B EC 9A 9B 9B 
4F 9E 3C F9 E8 D1 A3 DB B6 6D EB DB E7 F1 D6 79 9A 8D D0 A6 6A A5 79 FB 76 5E EA CA 8A A1 6D AE 
BE 11 F3 9D 28 7D FF 7B 43 37 C7 26 E7 49 A4 2A A5 42 A5 24 FE 38 91 F1 AE 79 FB D3 C8 7C E2 CA 
E1 CF BC A0 FD F3 09 DD F3 E7 9D 4A A9 D8 B5 2C CC DC DC FC FC F9 F3 3A 97 49 57 DF 15 E7 D3 4F 
3F 4D 8E 5E 3F 33 22 4A EB D5 5B B1 DC 55 0D DB 26 76 76 A9 C0 84 E3 1D F5 F9 61 41 EC 27 CB 2F 
45 85 5C 6A F2 EF 66 F7 C6 54 57 E9 ED 9C DF 95 FE 3C 9C 3D 67 87 D0 EC 74 2A A5 22 35 2E 26 2F 
23 ED 4E 41 6E 64 D0 04 D1 A2 95 DD 6A D9 9E D4 7D 31 AA 2A 45 5C 5C 5C 4B 37 96 20 A2 F0 F0 F0 
A3 47 8F A6 C6 C5 F8 CD 5A A0 B5 EE EF A0 B0 EA A4 30 A2 DC 2D 81 EF E7 74 7E B1 C0 86 E3 B1 60 
E9 85 D9 AA DB 05 92 DC 1C B9 92 88 CC F9 42 D7 41 1E AE 3C 13 52 E5 EE 4C CE 94 0A C7 75 DD 2A 
CE BD 06 42 B3 D3 25 47 AF 4F 8D 6B B8 B1 A2 24 53 1C 99 39 61 C3 8F 17 BB CF 29 69 49 A6 98 88 
42 42 42 5A DF 6D E4 C8 91 19 19 19 72 59 49 57 2E 96 0E 1D C1 94 E3 E8 E5 E9 E8 A5 B5 95 E3 B1 
60 A6 41 CA E9 F9 10 9A 1D 4F 76 EB B7 8A FF 14 37 3E 3D FB 7F 13 B4 76 48 F9 2E FA AD 80 0F BA 
B4 A6 96 95 DE BE 61 69 69 79 E2 C4 09 CD 8D BF FE FA EB 9D 3B 77 34 37 9A 98 98 10 91 24 53 DC 
AD 9A C9 00 5D 0F A1 D9 F1 7E BF 73 53 F2 CB CF 8D 4F 6B 1F A8 B4 76 B8 95 9B FD 62 FF 01 5D 5B 
54 8B AA 2A 2B 6C 6C 6C 4E 9F 3E AD B9 B1 B0 B0 B0 AC AC 4C 73 A3 4C 26 EB F2 D2 A0 2B 24 44 2E 
93 5E BF A2 BC 5B F9 67 B5 F2 CE 95 CB 44 D4 EF 45 F3 A5 BB 93 0C 5D 57 F7 85 D0 EC 78 5E EF 4E 
F2 7A 77 52 E3 D3 5F D3 4F CA 4B 4B 34 77 78 FB FD E0 EE B3 F4 77 C9 6F D7 24 59 E2 1D 3B 76 68 
6E 3C 74 E8 50 66 66 E6 A6 4D 9B 1A B7 C4 C7 C7 1F 39 72 84 6F 6B D7 E5 05 42 E7 E2 98 F1 D4 43 
34 44 74 F7 BF A5 44 24 1C 86 CE 44 6B 30 E5 A8 D3 F9 8A A6 6B 3E ED F7 A2 B9 AF 68 9A A1 8A 69 
4E 20 74 21 A2 F3 E7 CF B7 BE 9B 7A 07 41 B7 19 8A 85 8E A2 FE 1F 40 13 46 60 5A 87 D0 EC 74 A2 
F0 95 61 9B 76 B9 8C 18 D5 EF 45 F3 09 A1 F3 37 9E BC D8 AD CE A5 78 8E F3 27 A2 4F 3F FD B4 95 
7D CE 9F 3F 9F 90 90 20 18 E2 D2 7D CE 5F 41 47 69 FE 6F 8A D0 6C 1D 42 B3 2B F8 8A A6 CF FD E7 
B7 F6 AF BA CE 8C 88 EA 56 89 49 44 42 6F 9F 09 A1 F3 F3 F2 F2 42 43 43 75 EE 50 5C 5C AC 7E 29 
6C F3 77 2D BE 8B C7 92 A4 A2 A4 E1 58 A2 B1 07 E2 DB 0A FA BD 68 AE B9 A5 79 DB 13 34 21 34 81 
44 E1 2B ED 85 2E F1 F1 F1 EF BC F3 4E 71 71 B1 E6 4B F1 F1 F1 1E 1E 1E C5 C5 C5 A2 45 2B D1 CC 
EC AD 34 FF 65 05 43 5C B0 CE 40 EB 70 22 08 88 63 C6 5B 95 98 BA 3F 72 F9 F9 43 07 1C 1C 1C 78 
3C 9E 8D 8D 8D 52 A9 DC BC 79 33 11 71 CC CC 97 7C 97 A8 EE C5 43 AF 24 F4 F6 91 64 35 9C 0B C2 
9F C6 36 21 34 81 88 88 63 C6 0B DB FC DD 1B E3 26 66 24 1F A8 2C 95 5E BB 76 85 88 84 C3 7C 04 
42 17 51 F8 4A 34 3D 7A 37 CD FE 38 06 34 DB 84 D0 84 A7 3C C7 F9 AB 5B 94 59 A9 47 6F E5 E6 4C 
5F F9 B5 A1 2B 82 AE D0 A4 7B 8E 96 66 5B 30 A6 09 F0 BC E3 DB 0A CC 2D 2C D5 8F D1 3D 6F 13 42 
13 00 68 90 87 17 61 5A BB 7E 10 9A 00 D0 D0 C0 C4 80 A6 3E 10 9A 00 D0 10 97 98 A1 A9 0F 84 26 
00 34 C4 25 5A 9A FA 40 68 02 00 71 CC 78 C2 61 3E 98 5B A6 0F 4C 39 02 68 BF 3F AB FF 50 55 DD 
37 74 15 1D E3 AD 80 0F 2A 9F 2C C7 D5 D7 D8 84 C7 C7 DD 7D 75 43 68 42 B7 A6 52 2A A4 D7 AF 48 
32 C5 B7 F3 2F 9B 5B F0 05 43 5C 0C 7E 2B 76 F5 FD 4B A4 92 2B 45 D7 F2 2B 4B 4B 38 66 E6 A6 1C 
EE 8B FD 5F EA 67 66 DE F6 C1 DD DB BF 8F FF A0 7E F0 F2 C0 41 73 BE DE D1 FA CE CF 2D 84 26 74 
5F 92 4C F1 AE 65 F3 2A FE 23 D5 DA 6E C0 5B B1 6B 96 64 6B 6B FB E2 8B 2F FE A1 AC 52 29 AB EE 
FE B7 D4 6F D6 82 A9 8B 3E 47 0F B7 D7 C3 98 26 74 53 EA 5B B1 D7 2A 15 8B 16 2D 3A 77 EE DC E1 
C3 87 A7 4E 9D 7A E4 C8 11 5F 5F DF 36 6E C5 2E 4B 3B B6 F4 9D 4F 1C B8 81 9E 43 FF F9 C5 F7 C5 
CA 0E 2B 29 23 F9 FB C8 A0 09 15 FF 91 6E DB B6 ED FE FD FB B9 B9 B9 7F FB DB DF 1E 3F 7E 7C EE 
DC 39 37 37 B7 93 FB 76 AE 0B F2 D3 7D A3 E3 DA 1B 17 23 03 BF 1C C1 0D 74 18 B8 38 F0 A3 93 B9 
2D DC 0C 19 7A 02 84 26 74 47 8D B7 62 3F 7F FE 7C 74 74 F4 C8 91 23 B9 5C EE 4B 2F BD 34 79 F2 
E4 F3 E7 CF 6F DB B6 4D A5 54 E8 BE 15 7B AD F8 E0 94 29 39 FC 95 EB 8A AA 93 CE EC 72 93 CD 5B 
B1 34 B9 43 22 4A 2E 93 FE EB AB 15 E6 E6 E6 B9 B9 B9 E1 E1 E1 9A 37 EF 1C 39 72 64 5E 5E DE CC 
99 33 8B 25 05 C9 D1 EB 9B 1F 5B 7C 20 0C 52 9E 82 00 00 15 95 49 44 41 54 64 47 EE 60 D1 91 CA 
A4 22 C9 92 59 A6 19 EF 4F 39 29 E9 88 9A C0 10 10 9A D0 ED 34 DE 8A FD E8 D1 A3 EE EE EE CD 77 
08 0F 0F 5F BD 7A 75 C5 7F A4 CD 13 AA 2E 37 E5 78 E5 44 BF 59 63 79 44 64 E6 35 26 6C 3E A5 A5 
DC 92 77 40 55 B1 9F CD AB AE 52 C4 C7 C7 EB 2C 89 88 E2 E3 E3 DD DC DC 52 E3 62 1A EF 1E F1 84 
F4 F7 CC 2B C2 69 B3 DD F9 A6 44 A6 36 E3 A6 0D A7 1C C9 ED F2 0E A8 09 0C 01 A1 09 DD 8E FA 56 
EC 6B D6 AC B1 B7 B7 6F 69 9F 35 6B D6 A8 13 4A 2E 6B 32 E2 59 6F E2 3A 63 D5 EC 41 4D 96 43 E6 
19 99 3C 6B 49 72 99 54 92 29 0E 08 08 98 3C 79 72 2B BB 45 47 47 13 51 CE E9 94 A6 9B 05 C3 77 
57 47 88 D4 8B 4F D7 28 32 92 2F D2 18 4F 0F 9C 9B EE A9 70 22 08 BA 1D 75 4B 2D 3C 3C BC F5 DD 
26 4F 9E 9C 9F 9F AF 75 2B 76 8E C7 74 3F 8F 27 4F 94 E2 E4 8D 31 E6 C1 47 06 99 3D 6B 49 EA F1 
D3 91 23 47 B6 BE 9B 7A 07 A9 E4 8A CE 57 6F C5 72 57 45 11 11 39 CD 4B 7D C3 F6 59 4B 02 43 41 
68 76 96 32 E9 9D E2 AB 79 8D 4F 95 F7 2A 95 77 2B 33 7F 3C 6C C0 92 F4 77 2B 2F E7 BF 45 B7 0D 
55 AD AC F0 37 3E 9F FF C3 0F 3F 68 6E BC 72 E5 CA 9D 3B 77 B4 36 52 8B B7 62 57 94 A6 AC DF 1B 
19 53 2A DC F8 79 C4 58 CE 33 97 74 F3 D7 2C 22 E2 72 B9 79 79 4F FF 4D 15 0A C5 83 07 0F 34 B7 
10 D1 EB AF BF FE 6B 96 58 FB 78 22 22 1A 14 56 9D 14 56 A3 92 24 EF 99 39 61 87 E3 B5 CF 45 DD 
EB C6 27 A0 27 84 66 67 F9 E3 6E E5 9D AB B9 8D 4F 1F FC A1 54 29 15 9A 5B BA B3 8A 92 A2 AA CA 
0A 43 55 AB BC 2B 7F E5 95 57 2E 5F BE AC B9 B1 A8 A8 48 2E 97 6B 6E 2C 29 29 69 76 28 11 11 C9 
D2 12 96 7E 94 2A F3 0A FA FA D7 25 E3 9C 9F 3D 31 89 E8 7E F9 7F 89 28 21 21 E1 E4 C9 93 8D 1B 
6B 6B 6B 7F FF FD F7 C8 C8 48 CD 3D 0B 0B 0B 4D FE FA D7 26 07 D7 96 17 E7 DE 34 12 FA D8 98 11 
91 29 47 38 DD 4F 34 6F D5 E9 1C 85 48 80 D9 49 3D 11 42 B3 B3 0C 1A EA 35 68 A8 57 E3 53 B9 AC 
E4 F2 99 D4 E0 E5 EB 0C 58 92 FE D4 8B 10 1B AA DA C2 DC 4B 92 2C F1 86 0D 1B 34 37 A6 A5 A5 25 
27 27 6B 6E 8C 8F 8F 4F 4C 4C D4 BE 15 7B AD 38 61 CA 94 5B E3 12 BF 49 F2 EF C0 FB BC 8D 0A 0C 
B9 70 EC FF 8E 1E 3D 7A CD 9A 35 8D 1B 2B 2B 2B FD FC FC 0E 1F 6E D2 1E EF D3 A7 8F F6 02 6B 26 
D2 8B 41 13 1E C4 CB E6 F8 AA 43 B2 A6 BE 96 88 6F 6E D4 71 E5 41 57 C2 89 A0 AE 53 A3 52 35 3B 
AF 0A 3A E8 79 2B 76 75 BF 58 6B A5 71 79 CA 96 54 5A 3B F3 EB 8E 4C CC C6 92 32 32 32 5A DF ED 
E8 D1 A3 A4 63 AD 20 57 F7 79 96 E9 D1 7B 25 4A 22 AA 91 67 AC 3F 18 67 39 C1 DF A7 43 9A C0 D0 
F5 10 9A 5D E7 C1 1F 55 2D CE C7 06 0D 7A DE 8A 7D FB F6 ED CD 6E C5 5E 5E 9C 91 4E 95 AB 57 39 
70 03 9F FE 17 78 F1 99 A7 1C 71 CC 78 6F 8C 9D A8 9E 34 DA D2 3E 0A 85 22 34 34 94 63 66 EE 37 
6B 41 D3 57 4C 85 E1 47 C3 84 E2 3D A3 B9 81 0E C2 7F C6 96 7B C6 9F 9B E9 6D FA AC 35 81 81 A0 
7B DE 45 64 85 BF 11 91 24 53 DC EC 1B 05 DA D4 B7 62 4F 8D 8B F9 F4 D3 4F B7 6D DB D6 7C 07 75 
3C 91 8E 5B B1 5B 79 7E 53 9D F4 4D A7 54 15 B6 79 D7 27 3E AF AE 5D BB D6 DE DE BE F9 C4 23 85 
42 31 65 CA 14 85 42 31 63 D5 46 1D B7 B6 37 71 F5 FD FA A8 2F 6E B9 D4 2B A0 A5 D9 45 4A 6F 5D 
27 22 E9 75 DD 93 51 40 8B FA 56 EC D1 D1 D1 CD 6F C5 7E F4 E8 51 07 07 87 AE BF 15 3B C7 8C 17 
B6 69 57 FD FF 3E 9E 32 65 CA 94 29 53 32 32 32 AA AA AA 88 28 2F 2F 2F 21 21 C1 C1 C1 E1 FC F9 
F3 BE 53 A7 E1 8F 62 AF 87 96 66 17 91 DD FA 8D 88 E4 32 A9 4A A9 C0 9A 0E 6D 52 DF 8A 3D 76 E9 
BC F3 69 27 1C 1C 1C EC ED ED CD CC CC E4 72 F9 EE DD BB C9 70 B7 62 F7 1C E7 6F 2F 74 8D 5D 3A 
EF E8 D1 A3 EA E1 4B 22 F2 F0 F0 20 22 CE 8B 66 1F AE DF 31 62 72 60 ED 9F 0F BA B8 AA CE 60 6C 
FA D7 3E 7D FA 18 BA 8A 6E 0A A1 D9 45 D4 A1 49 44 92 4C 71 D7 7F DB 7B 22 8E 19 6F E9 EE A4 9C 
D3 29 19 C9 07 4A AE 17 14 17 14 D0 93 5B B1 FB CD 5A A0 A3 0B DC 25 F8 B6 82 88 A4 D4 9C D3 29 
52 C9 15 49 F6 BF AF 67 89 39 66 3C 63 13 53 93 7E FD 52 E3 62 53 E3 62 0D 52 D5 B3 7B F4 B0 FE 
85 BE 4F CF E7 AF 88 3F 6C F1 F2 2B 06 AC A7 3B 43 68 76 91 C2 BC 1C F5 03 A9 E4 0A 42 53 7F 8D 
B7 62 2F 10 9F CD 4A 3D FA E1 FA 6E B1 C8 A3 BA 2A E5 BD CA 8D B3 A6 7E 7D B4 8D 53 EA 3D C2 C9 
7D 3B 7D 45 D3 D0 07 D2 07 C6 34 BB 82 E6 4C 23 CC 3A 82 6E 48 2A 29 C0 FF 99 7A 42 68 76 05 CD 
99 46 92 16 AE B1 03 30 20 E9 F5 2B 2D 5D 32 0F 5A D0 3D EF 0A D2 A6 D3 33 8B 25 05 86 BD 61 03 
80 96 62 49 41 BF 17 7B FC ED 3A BA 06 5A 9A 5D 41 6B A6 11 FA 41 D0 AD A8 FF 87 44 1F 48 4F 08 
CD AE A0 75 21 90 14 D7 05 41 77 52 74 2D 5F FD 00 57 AC E9 03 A1 D9 E9 9A B7 2B 31 C5 1D BA 95 
E2 6B 0D AB DB E1 CF B9 3E 10 9A 9D AE F9 5F EF 62 49 81 EE DB 6F 01 18 42 C9 6F 57 D5 0F 30 70 
A4 0F 9C 08 EA 74 9E E3 26 DA 0B 5D 15 F2 F2 63 BB B6 CE 5C B5 D1 D0 E5 00 34 A1 52 2A A4 D7 1B 
42 13 7D 20 7D 20 34 3B 1D DF 56 C0 B7 15 C8 65 25 1C 33 73 5D 6B 8C 03 18 92 E6 4C 23 75 1F 08 
53 DC 5B 87 EE 39 C0 73 4D AB 4B 8E D9 9A 6D 42 68 32 53 64 2C 8B 0C 9C 10 F9 C5 F7 A5 B5 86 2E 
05 E0 99 69 8D B9 63 58 B3 4D 08 4D 76 CA 12 49 96 58 72 70 DE 92 C0 45 17 6F D7 18 BA 1A 80 67 
82 49 C4 AC 10 9A ED F5 F6 18 37 D9 DE 1D 63 86 6E DE 27 C6 89 70 E8 A1 54 4A 85 D6 8D E3 71 2E 
A8 4D 08 CD F6 F2 5E F9 F9 99 B3 41 6F D7 5C 5A 37 61 DE 88 C0 63 A7 6F A8 0C 5D 11 00 AB E6 23 
98 CD 63 14 B4 E0 EC F9 33 30 F3 0A 48 B8 FC 46 CA FA BD 91 31 89 1F 9D 48 B4 99 18 B4 7C B1 EF 
38 2F 9E 89 A1 0B 03 D0 0F DF D6 2E 22 31 F5 D1 C3 FA EF 96 2F 98 BF 65 B7 7A 63 3F 33 5C 84 DE 
1A 84 E6 33 E2 D9 F8 47 45 F8 CE CE 39 B0 7A 7F D4 89 C4 85 27 12 C9 CE 69 EA C4 B1 E3 A6 0B BD 
07 F3 CD 70 F3 2C E8 D6 D4 F3 E1 1E D6 D5 19 FF B5 1F E6 C3 E9 09 A1 D9 11 CC 9C 3D C3 92 3C A7 
49 F3 52 B6 A6 C6 EE CD 3F 14 53 78 28 86 88 C8 62 F0 8C 84 CB 7E 42 43 97 07 00 1D 07 63 9A 1D 
C7 4C E0 3E 6D FB E7 17 2A 77 FD 98 18 16 3A CD C9 86 A8 F2 66 3D A6 25 01 F4 2E 68 69 76 38 53 
9E D0 DF 37 C2 DF 37 E2 3B AA 55 D4 61 7C 13 A0 77 41 4B B3 33 99 F0 8C 0D 5D 02 00 74 2C B4 34 
99 F1 C6 ED DA 9B 4F 64 82 EB 73 01 9E 47 08 4D 76 26 3C 0E 3A DD 00 CF 2B 74 CF DB A7 5C 72 60 
D1 3F 47 0F 0C 74 E0 06 7A 0E 8D 5C BA 33 4F A6 7D 3D E5 AD 58 6E A0 03 F7 58 AE 41 CA 03 80 CE 
82 D0 6C 07 E9 C5 4F DE 8C FC 72 6F FE 1D 7A 79 98 8F D0 4C 21 39 B4 7C 83 CF 84 63 B9 B8 0E 1D 
A0 F7 43 68 32 53 9D 5E BF E3 44 05 B9 2F 5E 91 7D 67 6B 52 6A C4 19 C9 96 4D 53 CD 29 27 71 EE 
F2 3C A5 A1 8B 03 60 F7 97 BE 7D 3F 58 FC A5 A1 AB E8 31 10 9A AC 6A A4 99 07 88 2C 27 2D 5F E9 
CE 57 6F 31 B5 11 7D B7 28 D4 92 2A F7 C6 46 8B EB 0C 5B 1D 00 BB BF FC E5 2F DE 7E 53 0C 5D 45 
8F 81 D0 64 55 A5 90 11 91 97 BD A3 E6 25 92 A6 C2 F0 EF C6 58 50 55 5C 44 BA C4 50 85 01 40 57 
40 68 32 33 D2 79 EA DC 6C 6C C0 F2 31 44 39 FB A3 93 E5 5D 5D 11 00 74 1D 84 26 2B 2B 7B 5F 1F 
A2 13 17 33 B5 97 CF E2 FB 47 06 B9 13 A5 2D 3B 98 82 95 B5 00 7A 2D 84 26 33 BE EF EC 37 88 2E 
2D 0C D9 93 9C 2D 57 6A 9C 31 37 71 9D F0 75 B4 9B 45 C5 2F 0B DF 89 8C 4C 2E 96 19 AE 44 00 E8 
34 08 4D 76 7C D1 CC F8 F9 42 8B 9C F4 CF 46 7D E2 66 11 38 37 B9 71 E5 76 63 E1 9C 25 49 F1 13 
86 91 24 2E 64 EF 41 43 D6 08 00 9D 04 57 04 B5 07 DF 37 2A E2 CC EC BC D3 E9 F9 99 27 A4 4D 57 
6C 35 76 14 CD 4C 9A 18 20 49 CB CF 14 4B 4E 5F E9 87 6B 87 00 7A 17 84 66 7B 99 39 BB 8B 9C DD 
45 0B 74 BD 66 CA 13 FA FB 0A FD 7D 67 75 75 51 00 D0 D9 D0 3D 07 00 60 80 96 66 27 A9 51 29 6B 
88 C8 C8 0C AB C3 01 F4 2A 68 69 76 0E F9 89 58 37 DB D9 6E B6 A9 58 B0 03 A0 77 41 68 02 00 30 
40 F7 BC 73 F0 45 4B 8B 44 86 2E 02 00 3A 1E 5A 9A 00 00 0C 10 9A 00 00 0C 10 9A 00 00 0C 10 9A 
00 00 0C 70 22 88 55 79 5E 64 C8 71 BD 17 CD 7C 33 22 75 AC B0 33 CB 01 80 AE 85 D0 64 65 42 26 
35 F2 AC 1C 3D 17 CD 74 AB ED DC 6A 00 A0 8B 21 34 59 F1 DC 97 9F FB 26 2C FB D8 CC 51 89 79 44 
63 77 6D D9 3C B1 95 3B A0 1B 99 75 5D 65 00 D0 05 10 9A ED 62 E6 15 10 B1 F6 E4 FB AB AB C8 94 
63 C6 E3 18 BA 1C 00 E8 32 38 11 D4 5E 8E AE 9E 86 2E 01 00 BA 1E 5A 9A ED 65 36 F8 8D 55 1B 5F 
36 B3 33 D2 6F F7 3E 7D FA FC E5 85 17 3A B7 24 00 E8 7C 08 CD 76 13 B8 CF 5A E0 AE F7 DE 16 36 
AF 7C F9 FD 89 4E 2C A7 B3 C9 C5 69 D1 3B 33 32 4E 14 96 12 59 0C 76 F3 5F 1C 14 3E DD BE B5 11 
DB F2 8B 73 1D 77 A4 35 DF 3E 3F E2 B7 28 A1 CE B5 99 65 C9 DB A7 84 FC E2 B8 EB 9B A4 E9 7C B6 
E2 14 A5 A7 F7 1E DF 77 20 2F EB 66 15 11 DF 7D DA 84 F0 95 63 7C 05 AD AD 2F 95 BB 25 F0 FD D5 
CD 37 0B 37 5D 8B 10 09 74 1D 50 73 2B 76 C2 AA A8 9C 09 89 95 33 BD 4D 75 ED 00 CF 0B 84 26 B4 
AD 2E 77 CB 86 B9 AB 25 95 76 6E C1 8B 67 38 D2 EF 19 C9 E9 71 F3 F2 E3 92 C3 C4 47 7D 6D 5B 3A 
A8 5C 21 23 B2 18 2C 74 B4 6A BA DD AA 85 B6 B9 F4 62 64 C8 2F 95 44 8E AC D5 49 73 96 4E D8 72 
A8 C4 7C E0 D4 E1 AB 66 F3 65 D9 E9 29 07 F6 87 1C 38 16 9A FA 4D 84 4F 4B B9 A9 52 96 10 11 DF 
DD 87 DF 34 BE F9 2D AC B4 5F 97 BB 7E 4F 54 0E 6B 65 D0 2B 21 34 A1 4D 05 E9 91 AB 25 95 9E 93 
12 8F 04 7B F3 88 88 66 45 06 A4 CC FC 72 E1 A1 D8 C8 64 E1 6E 91 EE 56 61 6D 95 FC 3A 51 F0 C6 
15 5F 8F D5 67 45 51 79 F2 22 5D CD D2 B6 A9 32 B6 EE 39 54 62 3E 71 57 C4 E6 E9 36 26 44 B4 C0 
2F 7C C1 B1 99 A3 12 E3 26 24 FB 57 07 7B E8 3E EA 81 FC 26 91 CF A4 CD A9 63 F5 C9 E8 5A 71 E2 
DC AD B8 C5 28 A8 E1 44 10 B4 45 22 CE C8 23 1A BB 60 AC F7 D3 B9 55 7C FF 25 01 43 88 D2 D2 8A 
95 2D 1C A5 2C 97 13 35 6B 66 B6 F4 11 3B B7 7F 96 EE 34 71 2A FB 75 00 8A 5B A7 F7 56 91 8B EF 
2C 91 4D 63 23 D1 CC 6B 4C D8 34 22 BA 94 5B D0 E2 61 72 31 91 1D 4F AF 51 00 45 5E E4 CC 54 9A 
FA E6 58 E6 E2 A0 57 42 68 42 1B 14 B2 6C 29 91 D0 7B 70 93 1B C8 91 15 CF 96 88 4A 1E B4 14 9A 
32 E9 25 22 BE AD 9D 1E CD CC 82 93 5F 2C 2F 74 5F 1C 1C E6 DF 8F B9 BA 12 E9 69 22 72 1D E4 D8 
64 9C 91 C3 1F 4C 44 BF CB AA EA 74 1F 55 2E CF 25 1A E6 DA 52 67 5C 93 2A 63 75 EC 41 7A 73 F9 
4A DF 16 1A AD F0 BC 41 F7 FC B9 20 97 49 2F A5 FD 38 64 D8 08 7B A1 2B EB B1 FD 3C 96 44 24 CE 
21 BE 56 FC 49 E5 B9 44 64 D7 AF 85 73 41 0A 79 01 91 CB CB 66 B5 A5 99 C9 12 49 79 3D 99 F3 3D 
3C 85 1E CE CD E6 B4 D6 14 C7 2E DA 9F E7 39 29 71 B1 90 9F 7E 52 D7 5B A9 94 8A 9F 0F 1D FC E5 
C7 C3 7F DC BB 9B 73 3A C5 73 9C BF C6 8B 76 6F 7C 93 3A 88 CC 5F 6E 1A 7F 0A 59 0E 11 09 6D 9B 
E6 FC 53 E5 F2 5C 22 0F 2B 8E B2 20 27 43 2C 57 92 11 7F F0 20 6F 1F 7B 7E B3 33 3C F2 94 3D 4B 
F7 D2 C4 5D 22 7F E7 07 FB 5A 78 33 BD 15 4B 0A 38 66 E6 7C 5B 9D 27 9A A0 C7 40 68 3E 17 E4 B2 
92 84 C8 65 EA C7 42 6F 1F A1 B7 8F BD D0 55 30 C4 45 9F 2F B0 31 DF 55 A8 DD 8D AD 29 DE B7 3E 
B1 92 CC 83 45 C2 16 42 B3 5E 59 41 74 25 31 C8 31 51 73 AB C5 C4 D9 09 F1 63 85 4F B3 A9 2E 77 
E7 9E A8 1C A7 79 A9 01 DE 3C 6A E1 D2 D4 2D 1F 05 49 32 C5 8D 8F 27 84 CE 9F 19 11 F5 E4 45 9E 
8D B7 8F 8D D6 01 B2 94 E4 D8 13 44 63 DE F4 1D AC BB 9D 5B 5B A5 A8 24 4A 0B F9 A4 E9 28 2A 3F 
F8 C8 86 AF C7 6A C4 BA F4 62 E4 A2 5F 68 6A D8 72 91 8D 09 DD D2 5D 5D 6B 54 4A C5 F5 AC 0B C5 
92 02 49 A6 58 2A B9 A2 52 2A 44 8B 56 8A C2 57 B2 BF 13 74 23 08 CD E7 8E 24 53 DC 98 41 7C 5B 
81 BD D0 55 E8 ED 23 10 BA 08 87 F9 E8 75 BC F2 C6 C5 8D F3 76 1C CC 21 9B 69 C1 B3 7C 5A BA 1A 
4A 71 5B 4C 44 4E C1 BB 66 86 89 06 D9 9A 52 AD F4 56 F2 FA 1D 5F 1E D8 FB 5E 08 27 3B 69 B8 3A 
85 6B B3 53 23 57 17 BA 2F 8E 08 6B F1 7D D4 89 A3 B9 25 35 2E C6 57 34 BD A5 26 B3 22 73 4B EC 
27 AB F3 2B 2D 85 F3 96 0C 77 6C 61 6E 90 BC 5C 4E 44 16 63 82 36 6F 1C E3 ED CC 31 A9 51 DD 4E 
3B F6 C5 A2 E3 07 A7 2C B6 3D FB 5D 98 57 C3 5E 29 11 09 27 E8 CD 4D 91 6F DA 32 CC 31 2A 96 14 
34 06 A5 5C 86 B3 47 BD 10 42 B3 77 92 4A 0A 24 59 17 1A 9F 96 49 EF E8 DC 4D 2E 93 CA 65 D2 9C 
D3 29 EA A7 EA 16 A8 D0 DB A7 EA AE CE 56 9F A2 34 65 FD DE C8 18 49 25 99 0F 5B 3C 67 F3 4A CF 
96 D3 44 10 76 6D 83 6F 39 C7 C3 AB 61 DC D0 44 30 68 DA 77 4B 6A 6F AE 58 77 62 47 72 F6 F0 30 
2F A2 9A 5B D1 8B 12 D5 1D F3 16 9A AB D1 1F CF D0 99 3B FF B3 F2 13 2E 6F 40 D0 67 6B EC 5F 75 
D3 F8 61 C4 27 BF F8 68 7F 5A 09 91 9D EF 57 49 33 A6 B9 B6 78 79 AB ED C4 39 E9 67 FD 68 B0 D0 
51 7D 6A CB 94 E3 E8 1F BC DB F4 C1 E8 29 E9 51 5B 2F 8A 92 86 F3 89 64 C9 09 0B 0F D1 C4 5D C1 
FE AD CE F7 24 92 CB A4 B7 0B 2E 27 6D 5A 5D AD B8 5F AD B8 DF EA BE 74 E1 68 D2 AD 3C ED A9 4B 
AF 0D F7 F5 9F 1B DE FA 81 D0 7D 20 34 7B A7 C7 8F 1F B3 1E 22 18 E2 C2 B7 B1 B3 B0 B1 EB F7 A2 
F9 A3 87 0F 2B 4A 8A 9B BC AC CC 3E F6 49 60 E2 CF 15 64 E1 33 61 D3 DA 00 91 57 2B CB 94 10 91 
B1 99 C0 DE 5B BB EF 6F 3F 6E B6 70 5D 8E 24 F3 A6 3C CC CB 3C 73 FD E6 5D 57 1A 3A E6 2D 08 5A 
B6 F6 E6 AF 99 3B 17 7F A8 B5 7D FC CC 79 8E 6E 6F BC F4 7F 1A FB E5 35 A5 29 CB 63 17 EE 2D 24 
E2 8F DD 38 3B 62 9A BB 6D EB D5 99 F2 1C 9B D5 6F E6 33 DC 9F D2 E3 4E 14 DF A6 E1 7C 69 C6 17 
21 97 2C A6 86 2D 17 B5 7E B2 A8 BE AE B6 58 52 F0 5B CE 45 AE F9 80 B2 62 DD 7F 99 34 B9 F9 8E 
7D 77 E6 3C AD 8D FD B8 2F B6 79 20 74 1F 08 CD DE C9 FE 55 37 CD 56 98 24 53 FC 53 C2 2E AD 7D 
04 43 5C EC 85 AE 02 A1 AB BA 75 A9 F9 52 56 EA D1 26 BB CA 52 62 03 83 32 4A 2D 85 F3 12 C3 C2 
FC F9 ED 5E BA C9 C4 B4 F1 FC F8 03 F9 CD 2A A2 AA 5D 13 66 6B D5 95 35 EF 13 87 79 0D 17 0E D9 
39 58 D9 39 FC B0 65 9D BC B4 A4 F1 75 BE 8D DD D0 D1 13 38 66 8D A1 57 73 2B 76 CA E6 28 71 95 
CD B4 D9 DF 44 8E F5 D0 6F 92 93 0E A6 46 7C 22 B2 24 AA 21 2A 57 FC 4C 44 87 62 7D 0E C5 36 DD 
29 35 C8 22 55 E3 C2 21 23 63 13 CF 71 FE 8D E7 A6 8A 25 05 52 49 41 B1 A4 40 2A B9 22 C9 12 53 
33 2F F6 7F E9 E5 81 83 DA 5B 21 74 0B 08 CD E7 08 DF C6 AE 31 22 05 42 17 8D DC 69 9D 34 E3 8B 
A0 8C 52 CF 49 DF C5 8B C6 B5 D1 57 6D 20 FB 3E D2 67 9E 64 6C FC 37 4D A7 BE D7 49 C4 97 88 04 
DE 83 CD 89 EA 6D 27 CE 58 D5 74 14 55 9E 9D B1 EB 90 74 C8 D4 49 22 2F 1E 59 35 C6 6B 44 52 6A 
42 E4 F2 2B FF 3E F7 A8 BE DE 7D E4 38 51 F8 4A CD CA EB 32 23 36 47 89 69 62 F4 86 AF E7 B4 7A 
59 67 A3 1A 49 A4 45 64 1C 4D 3A AC 35 F5 FD 46 71 06 11 79 D9 3B 9A 12 59 09 56 6D 9C D1 F4 B0 
DF 33 96 A7 FF 4C 6E C1 1B DD 1C C9 A8 85 71 09 7B A1 AB BD D0 D5 F7 C9 D3 27 A7 80 0A 8A 25 05 
D2 EB 57 F4 29 0E BA 3F 84 E6 73 41 20 74 D9 9B 2F D3 3B 25 9B A8 CB DC 7B F0 67 12 84 46 06 B4 
9A 98 75 4A 45 3D 11 99 F0 38 26 44 B6 AE 6F 0C 21 49 DA B2 93 19 63 66 FA 3E F9 50 A5 38 39 7A 
2F D1 18 5F 5F 57 63 22 63 8F E9 7E 5A 33 1F E5 56 92 5D 87 A4 66 63 C7 CE 6A 72 ED 39 DF 56 B0 
74 77 52 81 F8 6C 56 EA D1 0F D7 EF 68 7A 8C F4 97 D8 98 2A 9A 18 B6 BC D5 0B E1 6B 15 AA DA 27 
B5 91 A9 C0 7B 1A C5 1D 38 1E BD C7 37 61 CE 93 1E 7E 4D 69 F2 FA E4 2C 32 0F 9E E6 C6 27 9D 0B 
0B DC AA 5D 9E FE 33 BD EC 3F DB 4F EF 6B CF D5 19 DA F8 54 92 29 EE 67 D6 D2 2C 28 E8 31 10 9A 
CF 85 F6 C5 A5 DA EF B9 DF 57 11 F1 E4 69 19 FB 9A 5F 60 63 3E 48 34 7D 90 19 11 95 5F 5A EA B8 
23 AD B1 DF EA 3A E6 EB B5 17 DF 5F 9D 1A 62 7B E9 ED D9 6F FA 0E A6 DB 69 BF 1C 4C 97 93 E5 9B 
9B 36 8E 11 76 DC 82 17 F2 82 BC 9F 89 A8 E6 D6 E9 BD AA E6 AF 3A 4E F4 F3 15 10 D1 AD 7D B6 AB 
A2 88 42 53 F7 47 F8 18 13 71 C6 AD 5C 38 31 6D C7 89 F0 25 9E 31 6F FA CF 1E 64 2B BD 75 20 F9 
97 3B 15 E4 BE 38 62 B9 BF FE AB A3 9A 0D B0 58 77 E8 AC FE C5 6A 8D 81 40 0F 85 D0 04 1D 86 8E 
9A E0 EA 33 9A 88 88 CA E5 92 0A 22 92 9E D8 BA 5F C7 22 4D 3E 61 E3 D4 A1 A9 CD D8 63 C9 E7 E9 
83 D3 63 63 72 32 F7 1E FF 99 C8 62 B0 5B F0 C6 20 91 68 78 FB C7 1C 75 91 DF 94 10 11 A5 A7 AF 
4B D7 F1 6A A8 6B 0B 6B 1D 09 86 7F F3 0B CF 7B FD C9 14 B1 24 6E F9 2F EA 85 91 36 89 FC C6 8D 
65 1D AE C5 72 7F CF A1 3E 8F 1F 3F BE 5E 55 5F 70 BF 85 EB CD 00 BA 07 B9 AC E4 BF 45 85 AE 3E 
A3 0C 5D 08 3C D7 FE 6E CF 41 4B 13 7A 06 BE AD 1D DF D6 CE D0 55 00 60 C1 0E 00 00 16 08 4D 00 
00 06 08 4D 00 00 06 08 4D 00 00 06 08 4D 00 00 06 08 4D 00 00 06 08 4D 00 00 06 08 4D 00 00 06 
08 4D 00 00 06 08 4D 00 00 06 08 4D 00 00 06 08 4D 00 00 06 08 4D 00 00 06 08 4D 00 00 06 08 4D 
00 00 06 08 4D 00 00 06 08 4D 00 00 06 08 4D 00 00 06 08 4D 00 00 06 08 4D 00 00 06 08 4D 00 00 
06 08 4D 00 00 06 08 4D 00 00 06 08 4D 00 00 06 08 4D 00 00 06 08 4D 00 00 06 08 4D 00 00 06 08 
4D 00 00 06 08 4D 00 00 06 08 4D 00 00 06 08 4D 00 00 06 08 4D 00 00 06 08 4D 00 00 06 08 4D 00 
00 06 08 4D 00 00 06 08 4D 00 00 06 08 4D 00 00 06 08 4D 00 00 06 08 4D 00 00 06 08 4D 00 00 06 
08 4D 00 00 06 08 4D 00 00 06 08 4D 00 00 06 08 4D 00 00 06 08 4D 00 00 06 08 4D 00 00 06 08 4D 
00 00 06 08 4D 00 00 06 08 4D 00 00 06 08 4D 00 00 06 08 4D 00 00 06 08 4D 00 00 06 08 4D 00 00 
06 08 4D 00 00 06 08 4D 00 00 06 08 4D 00 00 06 08 4D 00 00 06 08 4D 00 00 06 08 4D 00 00 06 08 
4D 00 00 06 08 4D 00 00 06 08 4D 00 00 06 08 4D 00 00 06 08 4D 00 00 06 08 4D 00 00 06 08 4D 00 
00 06 08 4D 00 00 06 08 4D 00 00 06 08 4D 00 00 06 08 4D 00 00 06 08 4D 00 00 06 08 4D 00 00 06 
08 4D 00 00 06 08 4D 00 00 06 08 4D 00 00 06 08 4D 00 00 06 08 4D 00 00 06 08 4D 00 00 06 08 4D 
00 00 06 08 4D 00 00 06 08 4D 00 00 06 08 4D 00 00 06 08 4D 00 00 06 08 4D 00 00 06 08 4D 00 00 
06 08 4D 00 00 06 08 4D 00 00 06 08 4D 00 00 06 08 4D 00 00 06 08 4D 00 00 06 08 4D 00 00 06 08 
4D 00 00 06 08 4D 00 00 06 08 4D 00 00 06 08 4D 00 00 06 08 4D 00 00 06 08 4D 00 00 06 08 4D 00 
00 06 08 4D 00 00 06 08 4D 00 00 06 08 4D 00 00 06 08 4D 00 00 06 08 4D 00 00 06 08 4D 00 00 06 
08 4D 00 00 06 08 4D 00 00 06 08 4D 00 00 06 08 4D 00 00 06 7D 1E 3F 7E FC E0 D1 E3 EA FA FF 35 
74 25 00 00 DD 9D A5 E9 0B 7D 1E 3F 7E 6C E8 32 00 00 7A 0C 74 CF 01 00 18 20 34 01 00 18 20 34 
01 00 18 20 34 01 00 18 FC 7F E1 D0 1B 9B BB 98 C0 27 00 00 00 00 49 45 4E 44 AE 42 60 82 
EndData
$EndBitmap
NoConn ~ 6850 4300
NoConn ~ 6850 4400
Wire Wire Line
	4250 4200 4100 4200
Wire Wire Line
	4100 4200 4100 4100
Connection ~ 4100 4100
$Comp
L Conn_01x02 J4
U 1 1 5AE691F4
P 2550 4550
F 0 "J4" H 2550 4650 50  0000 C CNN
F 1 "Conn_01x02" H 2550 4350 50  0000 C CNN
F 2 "Pin_Headers:Pin_Header_Straight_1x02_Pitch2.54mm" H 2550 4550 50  0001 C CNN
F 3 "" H 2550 4550 50  0001 C CNN
	1    2550 4550
	1    0    0    -1  
$EndComp
Text Label 1900 4550 0    60   ~ 0
VIN
Wire Wire Line
	2350 4550 1750 4550
Text Label 1950 4650 0    60   ~ 0
GND
Wire Wire Line
	2350 4650 1750 4650
$Comp
L Conn_01x05_Male J5
U 1 1 5AE698E2
P 8500 4750
F 0 "J5" H 8500 5050 50  0000 C CNN
F 1 "Conn_01x05_Male" H 8500 4450 50  0000 C CNN
F 2 "Pin_Headers:Pin_Header_Straight_1x05_Pitch2.54mm" H 8500 4750 50  0001 C CNN
F 3 "" H 8500 4750 50  0001 C CNN
	1    8500 4750
	1    0    0    -1  
$EndComp
$Comp
L Conn_01x05_Male J6
U 1 1 5AE69C35
P 8500 5450
F 0 "J6" H 8500 5750 50  0000 C CNN
F 1 "Conn_01x05_Male" H 8500 5150 50  0000 C CNN
F 2 "Pin_Headers:Pin_Header_Straight_1x05_Pitch2.54mm" H 8500 5450 50  0001 C CNN
F 3 "" H 8500 5450 50  0001 C CNN
	1    8500 5450
	1    0    0    -1  
$EndComp
$Comp
L Conn_01x05_Male J7
U 1 1 5AE69C63
P 8500 6150
F 0 "J7" H 8500 6450 50  0000 C CNN
F 1 "Conn_01x05_Male" H 8500 5850 50  0000 C CNN
F 2 "Pin_Headers:Pin_Header_Straight_1x05_Pitch2.54mm" H 8500 6150 50  0001 C CNN
F 3 "" H 8500 6150 50  0001 C CNN
	1    8500 6150
	1    0    0    -1  
$EndComp
Wire Wire Line
	9300 4550 8700 4550
Text Label 8900 4550 0    60   ~ 0
+5V
Text Label 8900 4950 0    60   ~ 0
GND
Wire Wire Line
	9300 4950 8700 4950
Wire Wire Line
	9300 5250 8700 5250
Text Label 8900 5250 0    60   ~ 0
+5V
Text Label 8900 5650 0    60   ~ 0
GND
Wire Wire Line
	9300 5650 8700 5650
Wire Wire Line
	9300 5950 8700 5950
Text Label 8900 5950 0    60   ~ 0
+5V
Text Label 8900 6350 0    60   ~ 0
GND
Wire Wire Line
	9300 6350 8700 6350
Wire Wire Line
	8700 4650 9350 4650
Text Label 8900 4650 0    60   ~ 0
VOUTA
Wire Wire Line
	8700 5350 9350 5350
Text Label 8900 5350 0    60   ~ 0
VOUTB
Wire Wire Line
	8700 6050 9350 6050
Text Label 8900 6050 0    60   ~ 0
VOUTC
NoConn ~ 8700 6150
NoConn ~ 8700 6250
NoConn ~ 8700 5450
NoConn ~ 8700 5550
NoConn ~ 8700 4750
NoConn ~ 8700 4850
$Comp
L PWR_FLAG #FLG01
U 1 1 5AE6C519
P 9300 4550
F 0 "#FLG01" H 9300 4625 50  0001 C CNN
F 1 "PWR_FLAG" H 9300 4700 50  0000 C CNN
F 2 "" H 9300 4550 50  0001 C CNN
F 3 "" H 9300 4550 50  0001 C CNN
	1    9300 4550
	1    0    0    -1  
$EndComp
$Comp
L PWR_FLAG #FLG02
U 1 1 5AE6C545
P 9300 4950
F 0 "#FLG02" H 9300 5025 50  0001 C CNN
F 1 "PWR_FLAG" H 9300 5100 50  0000 C CNN
F 2 "" H 9300 4950 50  0001 C CNN
F 3 "" H 9300 4950 50  0001 C CNN
	1    9300 4950
	1    0    0    -1  
$EndComp
$Comp
L PWR_FLAG #FLG03
U 1 1 5AE6CB1D
P 1750 4550
F 0 "#FLG03" H 1750 4625 50  0001 C CNN
F 1 "PWR_FLAG" H 1750 4700 50  0000 C CNN
F 2 "" H 1750 4550 50  0001 C CNN
F 3 "" H 1750 4550 50  0001 C CNN
	1    1750 4550
	1    0    0    -1  
$EndComp
$Comp
L Conn_02x04_Odd_Even J2
U 1 1 5AE6D655
P 8700 3950
F 0 "J2" H 8750 4150 50  0000 C CNN
F 1 "Conn_02x04_Odd_Even" H 8750 3650 50  0000 C CNN
F 2 "Pin_Headers:Pin_Header_Straight_2x04_Pitch2.54mm" H 8700 3950 50  0001 C CNN
F 3 "" H 8700 3950 50  0001 C CNN
	1    8700 3950
	-1   0    0    -1  
$EndComp
$EndSCHEMATC
