(module LEMO.FGG.0B.305_CLAD42_FEMALE (layer F.Cu) (tedit 5AE64781)
  (fp_text reference REF** (at 0 3.81) (layer F.SilkS)
    (effects (font (size 1 1) (thickness 0.15)))
  )
  (fp_text value LEMO.FGG.0B.305_CLAD42_FEMALE (at 0 -3.81) (layer F.Fab)
    (effects (font (size 1 1) (thickness 0.15)))
  )
  (pad 1 thru_hole circle (at 0 0) (size 1.524 1.524) (drill 0.762) (layers *.Cu *.Mask))
  (pad 2 thru_hole circle (at 2.54 1.27) (size 1.524 1.524) (drill 0.762) (layers *.Cu *.Mask))
  (pad 3 thru_hole circle (at 5.08 1.27) (size 1.524 1.524) (drill 0.762) (layers *.Cu *.Mask))
  (pad 4 thru_hole circle (at 5.08 -1.27) (size 1.524 1.524) (drill 0.762) (layers *.Cu *.Mask))
  (pad 5 thru_hole circle (at 2.54 -1.27) (size 1.524 1.524) (drill 0.762) (layers *.Cu *.Mask))
)
